Sentiment Analysis of Star Wars (4-6) Movie Scripts
…
Tokenize and remove stop words

I will use single words as my token as I am interested in the sentiments of words.

sw_tokens <- sw_scripts %>%
  unnest_tokens(
    word,
    dialogue
  ) %>%
  anti_join(stop_words)

sw_tokens

## # A tibble: 7,987 x 4
##    character episode  line word     
##    <chr>       <dbl> <dbl> <chr>    
##  1 Threepio        4     1 hear     
##  2 Threepio        4     1 shut     
##  3 Threepio        4     1 main     
##  4 Threepio        4     1 reactor  
##  5 Threepio        4     1 destroyed
##  6 Threepio        4     1 madness  
##  7 Threepio        4     2 doomed   
##  8 Threepio        4     3 there'll 
##  9 Threepio        4     3 escape   
## 10 Threepio        4     3 princess 
## #  with 7,977 more rows
…
